test.vcd
$date
	Thu May 28 19:55:06 2020
$end
$version
	Icarus Verilog
$end
$timescale
	1s
$end
$scope module testbanch $end
$var reg 1 ! clk $end
$var reg 1 " rst $end
$scope module cpu_block $end
$var wire 1 ! clk $end
$var wire 1 " rst $end
$var wire 1 # zero $end
$var wire 2 $ comFormat [1:0] $end
$var wire 1 % WBSrc $end
$var wire 1 & RegWrite $end
$var wire 2 ' RegDst [1:0] $end
$var wire 2 ( PCSrc [1:0] $end
$var wire 4 ) OpSel [3:0] $end
$var wire 6 * OpCode [5:0] $end
$var wire 1 + MemWrite $end
$var wire 1 , MemRead $end
$var wire 1 - ExtSel $end
$var wire 1 . BSrc $end
$scope module control_flow_block $end
$var wire 1 # zero $end
$var wire 2 / comFormat [1:0] $end
$var wire 6 0 OpCode [5:0] $end
$var reg 1 . BSrc $end
$var reg 1 - ExtSel $end
$var reg 1 , MemRead $end
$var reg 1 + MemWrite $end
$var reg 4 1 OpSel [3:0] $end
$var reg 2 2 PCSrc [1:0] $end
$var reg 2 3 RegDst [1:0] $end
$var reg 1 & RegWrite $end
$var reg 1 % WBSrc $end
$upscope $end
$scope module data_flow_block $end
$var wire 1 . BSrc $end
$var wire 1 - ExtSel $end
$var wire 1 , MemRead $end
$var wire 1 + MemWrite $end
$var wire 6 4 OpCode [5:0] $end
$var wire 4 5 OpSel [3:0] $end
$var wire 2 6 PCSrc [1:0] $end
$var wire 2 7 RegDst [1:0] $end
$var wire 1 & RegWrite $end
$var wire 1 % WBSrc $end
$var wire 1 ! clk $end
$var wire 2 8 comFormat [1:0] $end
$var wire 1 " rst $end
$var wire 1 # zero $end
$var wire 5 9 wdest [4:0] $end
$var wire 1 : stall $end
$var wire 5 ; shamt [4:0] $end
$var wire 32 < rtdata [31:0] $end
$var wire 5 = rt [4:0] $end
$var wire 32 > rsdata [31:0] $end
$var wire 5 ? rs [4:0] $end
$var wire 32 @ read_data [31:0] $end
$var wire 5 A rd [4:0] $end
$var wire 32 B pc_next [31:0] $end
$var wire 32 C pc_curr [31:0] $end
$var wire 32 D pc4 [31:0] $end
$var wire 6 E opcode [5:0] $end
$var wire 32 F muxout [31:0] $end
$var wire 1 G mem_wenable $end
$var wire 32 H mem_wdata [31:0] $end
$var wire 1 I mem_renable $end
$var wire 32 J mem_rdata [31:0] $end
$var wire 32 K mem_addr [31:0] $end
$var wire 32 L jumping [31:0] $end
$var wire 32 M imm_valuereg [31:0] $end
$var wire 32 N imm_extended [31:0] $end
$var wire 16 O imm [15:0] $end
$var wire 1 P hit $end
$var wire 11 Q haz_control [10:0] $end
$var wire 6 R funct [5:0] $end
$var wire 11 S control [10:0] $end
$var wire 32 T command [31:0] $end
$var wire 32 U branching [31:0] $end
$var wire 32 V alu_out [31:0] $end
$var wire 32 W alu_in2 [31:0] $end
$var wire 32 X alu_in1 [31:0] $end
$var wire 6 Y aluControl [5:0] $end
$var wire 26 Z address [25:0] $end
$var wire 5 [ WB_rd [4:0] $end
$var wire 32 \ WB_mem_out [31:0] $end
$var wire 32 ] WB_alu_out [31:0] $end
$var wire 1 ^ WB_WB $end
$var wire 1 _ WB_RegWrite $end
$var wire 32 ` PC_Plus4Reg [31:0] $end
$var wire 1 a PCWrite $end
$var wire 32 b MEM_write_data [31:0] $end
$var wire 5 c MEM_rd [4:0] $end
$var wire 32 d MEM_alu_out [31:0] $end
$var wire 1 e MEM_WB $end
$var wire 1 f MEM_RegWrite $end
$var wire 1 g MEM_MWrite $end
$var wire 1 h MEM_MRead $end
$var wire 1 i MEMWBWrite $end
$var wire 32 j InstReg [31:0] $end
$var wire 1 k IFIDWrite $end
$var wire 1 l IFFlush $end
$var wire 1 m IDEXWrite $end
$var wire 1 n HazMuxCon $end
$var wire 2 o ForwardB [1:0] $end
$var wire 2 p ForwardA [1:0] $end
$var wire 6 q EX_aluControl [5:0] $end
$var wire 1 r EX_WB $end
$var wire 1 s EX_RegWrite $end
$var wire 1 t EX_MWrite $end
$var wire 5 u EXRt [4:0] $end
$var wire 5 v EXRs [4:0] $end
$var wire 2 w EXRegDst [1:0] $end
$var wire 5 x EXRd [4:0] $end
$var wire 4 y EXOpSel [3:0] $end
$var wire 1 z EXMRead $end
$var wire 1 { EXMEMWrite $end
$var wire 1 | EXBSrc $end
$var wire 32 } DataBreg [31:0] $end
$var wire 32 ~ DataBnew [31:0] $end
$var wire 32 !" DataAreg [31:0] $end
$scope module ALU_block $end
$var wire 32 "" in1signed [31:0] $end
$var wire 32 #" in2signed [31:0] $end
$var wire 6 $" opcode [5:0] $end
$var wire 32 %" sum [31:0] $end
$var wire 32 &" sub [31:0] $end
$var wire 32 '" in2prepared [31:0] $end
$var wire 32 (" in2 [31:0] $end
$var wire 32 )" in1prepared [31:0] $end
$var wire 32 *" in1 [31:0] $end
$var wire 6 +" aluControl [5:0] $end
$var reg 32 ," out [31:0] $end
$upscope $end
$scope module HU $end
$var wire 1 : stall $end
$var wire 5 -" IDRegRt [4:0] $end
$var wire 5 ." IDRegRs [4:0] $end
$var wire 5 /" EXRegRt [4:0] $end
$var wire 1 z EXMemRead $end
$var reg 1 { EXMEMWrite $end
$var reg 1 n HazMuxCon $end
$var reg 1 m IDEXWrite $end
$var reg 1 k IFIDWrite $end
$var reg 1 i MEMWBWrite $end
$var reg 1 a PCWrite $end
$upscope $end
$scope module MUX0 $end
$var wire 32 0" X3 [31:0] $end
$var wire 32 1" X2 [31:0] $end
$var wire 32 2" X1 [31:0] $end
$var wire 32 3" X0 [31:0] $end
$var wire 2 4" A [1:0] $end
$var reg 32 5" Out [31:0] $end
$upscope $end
$scope module MUX1 $end
$var wire 32 6" X3 [31:0] $end
$var wire 32 7" X2 [31:0] $end
$var wire 32 8" X1 [31:0] $end
$var wire 32 9" X0 [31:0] $end
$var wire 2 :" A [1:0] $end
$var reg 32 ;" Out [31:0] $end
$upscope $end
$scope module PCImm_block $end
$var wire 32 <" pc [31:0] $end
$var wire 32 =" out [31:0] $end
$var wire 32 >" imm [31:0] $end
$upscope $end
$scope module alu_dec_block $end
$var wire 4 ?" OpSel [3:0] $end
$var wire 6 @" funct [5:0] $end
$var reg 6 A" aluControl [5:0] $end
$upscope $end
$scope module cacheBlock $end
$var wire 1 ! clk $end
$var wire 155 B" curRow [0:154] $end
$var wire 1 P hit $end
$var wire 32 C" mask4 [31:0] $end
$var wire 32 D" read_addr [31:0] $end
$var wire 1 " rst $end
$var wire 1 : stall $end
$var wire 1 g wenable $end
$var wire 32 E" wdata [31:0] $end
$var wire 1 F" v_cur $end
$var wire 1 G" tag_cmp $end
$var wire 26 H" t_cur [25:0] $end
$var wire 26 I" t [25:0] $end
$var wire 1 h renable $end
$var wire 32 J" r3 [31:0] $end
$var wire 32 K" r2 [31:0] $end
$var wire 32 L" r1 [31:0] $end
$var wire 32 M" r0 [31:0] $end
$var wire 32 N" mem_rdata [31:0] $end
$var wire 2 O" k [1:0] $end
$var wire 2 P" b [1:0] $end
$var wire 32 Q" addr [31:0] $end
$var wire 32 R" D3 [31:0] $end
$var wire 32 S" D2 [31:0] $end
$var wire 32 T" D1 [31:0] $end
$var wire 32 U" D0 [31:0] $end
$var reg 3 V" counter [2:0] $end
$var reg 32 W" mem_addr [31:0] $end
$var reg 1 I mem_renable $end
$var reg 32 X" mem_wdata [31:0] $end
$var reg 1 G mem_wenable $end
$var reg 32 Y" rdata [31:0] $end
$upscope $end
$scope module decoder_block $end
$var wire 2 Z" comFormat [1:0] $end
$var wire 5 [" shamt [4:0] $end
$var wire 5 \" rt [4:0] $end
$var wire 5 ]" rs [4:0] $end
$var wire 5 ^" rd [4:0] $end
$var wire 6 _" opcode [5:0] $end
$var wire 16 `" imm [15:0] $end
$var wire 6 a" funct [5:0] $end
$var wire 32 b" com [31:0] $end
$var wire 26 c" address [25:0] $end
$upscope $end
$scope module exmem $end
$var wire 32 d" ALUOut [31:0] $end
$var wire 1 { EXMEMWrite $end
$var wire 32 e" WriteDataIn [31:0] $end
$var wire 1 ! clock $end
$var wire 1 " rst $end
$var wire 1 r WB $end
$var wire 1 s RegWrite $end
$var wire 5 f" RegRD [4:0] $end
$var wire 1 t MWrite $end
$var wire 1 z MRead $end
$var reg 32 g" ALUreg [31:0] $end
$var reg 1 h MReadreg $end
$var reg 1 g MWritereg $end
$var reg 5 h" RegRDreg [4:0] $end
$var reg 1 f RegWritereg $end
$var reg 1 e WBreg $end
$var reg 32 i" WriteDataOut [31:0] $end
$upscope $end
$scope module extend_block $end
$var wire 1 - ExtSel $end
$var wire 16 j" imm [15:0] $end
$var wire 32 k" out [31:0] $end
$upscope $end
$scope module forwarding_unit $end
$var wire 5 l" MEMRegRd [4:0] $end
$var wire 1 f MEM_RegWrite $end
$var wire 1 _ WB_RegWrite $end
$var wire 5 m" WBRegRd [4:0] $end
$var wire 5 n" EXRegRt [4:0] $end
$var wire 5 o" EXRegRs [4:0] $end
$var reg 2 p" ForwardA [1:0] $end
$var reg 2 q" ForwardB [1:0] $end
$upscope $end
$scope module idex $end
$var wire 1 r" BSRC $end
$var wire 1 m IDEXWrite $end
$var wire 1 s" MRead $end
$var wire 1 t" MWrite $end
$var wire 4 u" OPSEL [3:0] $end
$var wire 2 v" RegDst [1:0] $end
$var wire 5 w" RegRd [4:0] $end
$var wire 5 x" RegRs [4:0] $end
$var wire 5 y" RegRt [4:0] $end
$var wire 1 z" RegWrite $end
$var wire 1 {" WB $end
$var wire 6 |" aluControl [5:0] $end
$var wire 1 ! clock $end
$var wire 32 }" imm_value [31:0] $end
$var wire 1 " rst $end
$var wire 32 ~" DataB [31:0] $end
$var wire 32 !# DataA [31:0] $end
$var reg 1 | BSRCreg $end
$var reg 32 "# DataAreg [31:0] $end
$var reg 32 ## DataBreg [31:0] $end
$var reg 1 z MReadreg $end
$var reg 1 t MWritereg $end
$var reg 4 $# OPSELreg [3:0] $end
$var reg 2 %# RegDstreg [1:0] $end
$var reg 5 &# RegRdreg [4:0] $end
$var reg 5 '# RegRsreg [4:0] $end
$var reg 5 (# RegRtreg [4:0] $end
$var reg 1 s RegWritereg $end
$var reg 1 r WBreg $end
$var reg 6 )# aluControlreg [5:0] $end
$var reg 32 *# imm_valuereg [31:0] $end
$upscope $end
$scope module ifid $end
$var wire 1 k IFIDWrite $end
$var wire 1 ! clock $end
$var wire 1 l flush $end
$var wire 1 " rst $end
$var wire 32 +# PC_Plus4 [31:0] $end
$var wire 32 ,# Inst [31:0] $end
$var reg 32 -# InstReg [31:0] $end
$var reg 32 .# PC_Plus4Reg [31:0] $end
$upscope $end
$scope module instruction_block $end
$var wire 32 /# addr [31:0] $end
$var reg 32 0# com [31:0] $end
$upscope $end
$scope module jumpExtend_block $end
$var wire 26 1# in [25:0] $end
$var wire 32 2# out [31:0] $end
$upscope $end
$scope module memory_block $end
$var wire 32 3# addr [31:0] $end
$var wire 1 ! clk $end
$var wire 1 I renable $end
$var wire 1 " rst $end
$var wire 32 4# wdata [31:0] $end
$var wire 1 G wenable $end
$var reg 32 5# rdata [31:0] $end
$upscope $end
$scope module memwb $end
$var wire 32 6# ALUOut [31:0] $end
$var wire 1 i MEMWBWrite $end
$var wire 32 7# Memout [31:0] $end
$var wire 5 8# RegRD [4:0] $end
$var wire 1 f RegWrite $end
$var wire 1 e WB $end
$var wire 1 ! clock $end
$var wire 1 " rst $end
$var reg 32 9# ALUreg [31:0] $end
$var reg 32 :# Memreg [31:0] $end
$var reg 5 ;# RegRDreg [4:0] $end
$var reg 1 _ RegWritereg $end
$var reg 1 ^ WBreg $end
$upscope $end
$scope module pc4_block $end
$var wire 32 <# out [31:0] $end
$var wire 32 =# in [31:0] $end
$upscope $end
$scope module pc_block $end
$var wire 1 a PCWrite $end
$var wire 1 ! clk $end
$var wire 1 " rst $end
$var wire 32 ># pc [31:0] $end
$var wire 32 ?# newPC [31:0] $end
$var reg 32 @# programCounter [31:0] $end
$upscope $end
$scope module pcmux_block $end
$var wire 2 A# PCSrc [1:0] $end
$var wire 32 B# br [31:0] $end
$var wire 32 C# jump [31:0] $end
$var wire 32 D# pc4 [31:0] $end
$var reg 32 E# out [31:0] $end
$upscope $end
$scope module regWriteMUX_block $end
$var wire 2 F# RegDst [1:0] $end
$var wire 5 G# r2 [4:0] $end
$var wire 5 H# r3 [4:0] $end
$var reg 5 I# wn [4:0] $end
$upscope $end
$scope module regimmChoose_block $end
$var wire 1 | BSrc $end
$var wire 32 J# imm [31:0] $end
$var wire 32 K# r2 [31:0] $end
$var wire 32 L# out [31:0] $end
$upscope $end
$scope module register_block $end
$var wire 1 ! clk $end
$var wire 5 M# r1 [4:0] $end
$var wire 5 N# r2 [4:0] $end
$var wire 1 " rst $end
$var wire 5 O# wdest [4:0] $end
$var wire 1 _ write $end
$var wire 32 P# wdata [31:0] $end
$var reg 32 Q# r1value [31:0] $end
$var reg 32 R# r2value [31:0] $end
$upscope $end
$scope module write_mux_block $end
$var wire 1 ^ WBSrc $end
$var wire 32 S# memory [31:0] $end
$var wire 32 T# outALU [31:0] $end
$var reg 32 U# out [31:0] $end
$upscope $end
$upscope $end
$upscope $end
$upscope $end
$enddefinitions $end
#0
$dumpvars
b0 U#
b0 T#
b0 S#
b0 R#
b0 Q#
b0 P#
b0 O#
b0 N#
b0 M#
b0 L#
b0 K#
b0 J#
b11111 I#
b0 H#
b0 G#
b0 F#
b100 E#
b100 D#
b0 C#
b0 B#
b0 A#
b0 @#
b100 ?#
b0 >#
b0 =#
b100 <#
b0 ;#
b0 :#
b0 9#
b0 8#
b0 7#
b0 6#
b0 5#
b0 4#
b0 3#
b0 2#
b0 1#
b10001100000000000000000000000000 0#
b0 /#
b0 .#
b0 -#
b10001100000000000000000000000000 ,#
b100 +#
b0 *#
b0 )#
b0 (#
b0 '#
b0 &#
b0 %#
b0 $#
b0 ##
b0 "#
b0 !#
b0 ~"
b0 }"
b0 |"
0{"
1z"
b0 y"
b0 x"
b0 w"
b1 v"
b0 u"
0t"
0s"
0r"
b0 q"
b0 p"
b0 o"
b0 n"
b0 m"
b0 l"
b0 k"
b0 j"
b0 i"
b0 h"
b0 g"
b11111 f"
b0 e"
b0 d"
b0 c"
b0 b"
b0 a"
b0 `"
b0 _"
b0 ^"
b0 ]"
b0 \"
b0 ["
b0 Z"
b0 Y"
b0 X"
b0 W"
b100 V"
b0 U"
b0 T"
b0 S"
b0 R"
b0 Q"
b0 P"
b0 O"
b0 N"
b0 M"
b100 L"
b1000 K"
b1100 J"
b0 I"
b0 H"
1G"
0F"
b0 E"
b0 D"
b11111111111111111111111111110000 C"
b0 B"
b0 A"
b0 @"
b0 ?"
b0 >"
b0 ="
b0 <"
b0 ;"
b0 :"
b0 9"
b0 8"
b0 7"
b0 6"
b0 5"
b0 4"
b0 3"
b0 2"
b0 1"
b0 0"
b0 /"
b0 ."
b0 -"
b0 ,"
b0 +"
b0 *"
b0 )"
b0 ("
b0 '"
b0 &"
b0 %"
bz $"
b0 #"
b0 ""
b0 !"
b0 ~
b0 }
0|
1{
0z
b0 y
b0 x
b0 w
b0 v
b0 u
0t
0s
0r
b0 q
b0 p
b0 o
1n
1m
0l
1k
b0 j
1i
0h
0g
0f
0e
b0 d
b0 c
b0 b
1a
b0 `
0_
0^
b0 ]
b0 \
b0 [
b0 Z
b0 Y
b0 X
b0 W
b0 V
b0 U
b10001100000000000000000000000000 T
b100000001 S
b0 R
b100000001 Q
0P
b0 O
b0 N
b0 M
b0 L
b0 K
b0 J
0I
b0 H
0G
b0 F
b0 E
b100 D
b0 C
b100 B
b0 A
b0 @
b0 ?
b0 >
b0 =
b0 <
b0 ;
0:
b11111 9
b0 8
b1 7
b0 6
b0 5
b0 4
b1 3
b0 2
b0 1
b0 0
b0 /
0.
0-
0,
0+
b0 *
b0 )
b0 (
b1 '
1&
0%
b0 $
1#
1"
0!
$end
#1
1!
#2
0!
0"
#3
b1 $
b1 /
b1 8
b1 Z"
1{"
1s"
b1010 u"
b10101010101 Q
b1110 Y
b1110 A"
b1110 |"
1,
1%
b10101010101 S
b1010 )
b1010 1
b1010 5
b1010 ?"
b1000 B
b1000 ?#
b1000 E#
b10001100000001000000000000000000 T
b10001100000001000000000000000000 ,#
b10001100000001000000000000000000 0#
b100011 *
b100011 0
b100011 4
b100011 E
b100011 _"
b0 9
b0 f"
b0 I#
b1000 D
b1000 +#
b1000 <#
b1000 D#
b100 U
b100 ="
b100 B#
b100 C
b100 <"
b100 /#
b100 =#
b100 >#
b100 @#
b100 `
b100 .#
b10001100000000000000000000000000 j
b10001100000000000000000000000000 b"
b10001100000000000000000000000000 -#
b1 w
b1 %#
b1 F#
1s
b11111 c
b11111 h"
b11111 l"
b11111 8#
1!
#4
0!
#5
0{"
0z"
0s"
b0 u"
b0 v"
b0 Q
b100 =
b100 -"
b100 \"
b100 y"
b100 N#
0n
0k
0a
b1100 B
b1100 ?#
b1100 E#
b100000000000010000000000000101 T
b100000000000010000000000000101 ,#
b100000000000010000000000000101 0#
b11111 [
b11111 m"
b11111 ;#
b11111 O#
b0 c
b0 h"
b0 l"
b0 8#
1f
b1110 q
b1110 +"
b1110 )#
b1010 y
b1010 $#
1z
1r
b1000 `
b1000 .#
b10001100000001000000000000000000 j
b10001100000001000000000000000000 b"
b10001100000001000000000000000000 -#
b1100 D
b1100 +#
b1100 <#
b1100 D#
b1000 U
b1000 ="
b1000 B#
b1000 C
b1000 <"
b1000 /#
b1000 =#
b1000 >#
b1000 @#
1!
#6
0!
#7
b11111 9
b11111 f"
b11111 I#
0i
0{
0m
1:
1I
b100 u
b100 /"
b100 n"
b100 (#
b100 G#
b0 w
b0 %#
b0 F#
b0 y
b0 $#
0z
0s
0r
1h
1e
b0 [
b0 m"
b0 ;#
b0 O#
1_
1!
#8
0!
#9
b100 K
b100 W"
b100 3#
1I
b11 V"
1!
#10
0!
#11
1I
b1000 K
b1000 W"
b1000 3#
b10 V"
b1 J
b1 N"
b1 5#
1!
#12
0!
#13
1I
b1100 K
b1100 W"
b1100 3#
b1 T"
b10 J
b10 N"
b10 5#
b1 V"
b10000000000000000000000000000000000000000000000000000000000000000 B"
1!
#14
0!
#15
0I
b0 K
b0 W"
b0 3#
b10 S"
b0 V"
b10000000000000000000000000000001000000000000000000000000000000000 B"
b11 J
b11 N"
b11 5#
1!
#16
0!
#17
1{"
1z"
1s"
b1010 u"
b1 v"
b10101010101 Q
1i
1{
1m
1n
1k
1a
0:
1P
0I
1F"
b11 R"
b100 V"
b10000000000000000000000000000000000000000000000000000000000000000000000000000000000000000010000000000000000000000000000001000000000000000000000000000000011 B"
1!
#18
0!
#19
1r"
b101 N
b101 >"
b101 k"
b101 }"
b100000 Y
b100000 A"
b100000 |"
0{"
1z"
0s"
b1000 u"
b10 v"
b101 O
b101 `"
b101 j"
b1 =
b1 -"
b1 \"
b1 y"
b1 N#
0%
0,
1.
1-
b10 '
b10 3
b10 7
b1011000001 S
b1000 )
b1000 1
b1000 5
b1000 ?"
b1011000001 Q
b10000 B
b10000 ?#
b10000 E#
b100000000000100000000000000101 T
b100000000000100000000000000101 ,#
b100000000000100000000000000101 0#
b1000 *
b1000 0
b1000 4
b1000 E
b1000 _"
b0 9
b0 f"
b0 I#
1n
1k
1a
b10000 D
b10000 +#
b10000 <#
b10000 D#
b100000 U
b100000 ="
b100000 B#
b1100 C
b1100 <"
b1100 /#
b1100 =#
b1100 >#
b1100 @#
b1100 `
b1100 .#
b100000000000010000000000000101 j
b100000000000010000000000000101 b"
b100000000000010000000000000101 -#
b1 w
b1 %#
b1 F#
b1010 y
b1010 $#
1z
1s
1r
b11111 c
b11111 h"
b11111 l"
b11111 8#
0h
0f
0e
1^
1!
#20
0!
#21
b101 V
b101 ,"
b101 d"
b11111111111111111111111111111011 &"
b101 %"
b101 '"
b10 =
b10 -"
b10 \"
b10 y"
b10 N#
b1 9
b1 f"
b1 I#
b101 #"
b101 W
b101 ("
b101 L#
b10100 B
b10100 ?#
b10100 E#
b1000100001100000100000 T
b1000100001100000100000 ,#
b1000100001100000100000 0#
b11111 [
b11111 m"
b11111 ;#
b11111 O#
0_
0^
b0 c
b0 h"
b0 l"
b0 8#
1h
1f
1e
b100000 q
b100000 +"
b100000 )#
b1 u
b1 /"
b1 n"
b1 (#
b1 G#
b101 M
b101 *#
b101 J#
b10 w
b10 %#
b10 F#
b1000 y
b1000 $#
1|
0z
0r
b10000 `
b10000 .#
b100000000000100000000000000101 j
b100000000000100000000000000101 b"
b100000000000100000000000000101 -#
b10100 D
b10100 +#
b10100 <#
b10100 D#
b100100 U
b100100 ="
b100100 B#
b10000 C
b10000 <"
b10000 /#
b10000 =#
b10000 >#
b10000 @#
1!
#22
0!
#23
b11 A
b11 ^"
b11 w"
b100000 R
b100000 @"
b100000 a"
b0 $
b0 /
b0 8
b0 Z"
b0 u"
0r"
b1 v"
b0 N
b0 >"
b0 k"
b0 }"
b100000001 Q
b100000 Y
b100000 A"
b100000 |"
b0 O
b0 `"
b0 j"
b1 ?
b1 ."
b1 ]"
b1 x"
b1 M#
b1 '
b1 3
b1 7
0-
0.
b100000001 S
b0 )
b0 1
b0 5
b0 ?"
b1 @
b1 Y"
b1 7#
b11000 B
b11000 ?#
b11000 E#
b10101100000000110000000000000000 T
b10101100000000110000000000000000 ,#
b10101100000000110000000000000000 0#
b0 *
b0 0
b0 4
b0 E
b0 _"
b10 9
b10 f"
b10 I#
b1 P"
b11000 D
b11000 +#
b11000 <#
b11000 D#
b10100 U
b10100 ="
b10100 B#
b10100 C
b10100 <"
b10100 /#
b10100 =#
b10100 >#
b10100 @#
b10100 `
b10100 .#
b1000100001100000100000 j
b1000100001100000100000 b"
b1000100001100000100000 -#
b10 u
b10 /"
b10 n"
b10 (#
b10 G#
b1 c
b1 h"
b1 l"
b1 8#
b101 d
b101 1"
b101 7"
b101 Q"
b101 g"
b101 6#
0h
0e
b0 [
b0 m"
b0 ;#
b0 O#
1_
1^
1!
#24
0!
#25
b101 )"
b101 ~
b101 ;"
b101 e"
b101 K#
b101 ""
b101 X
b101 *"
b101 5"
b1 $
b1 /
b1 8
b1 Z"
0z"
1t"
b1011 u"
1r"
b10 v"
b1010 V
b1010 ,"
b1010 d"
b1011011010 Q
b11110 Y
b11110 A"
b11110 |"
b0 &"
b1010 %"
b101 '"
b0 R
b0 @"
b0 a"
b0 A
b0 ^"
b0 w"
b11 =
b11 -"
b11 \"
b11 y"
b11 N#
b0 ?
b0 ."
b0 ]"
b0 x"
b0 M#
1+
1.
0&
b10 '
b10 3
b10 7
b1011011010 S
b1011 )
b1011 1
b1011 5
b1011 ?"
b101 F
b101 2"
b101 8"
b101 P#
b101 U#
b10 o
b10 :"
b10 q"
b1 p
b1 4"
b1 p"
b11 9
b11 f"
b11 I#
b101 #"
b101 W
b101 ("
b101 L#
b101011 *
b101011 0
b101011 4
b101011 E
b101011 _"
b11100 B
b11100 ?#
b11100 E#
b10000001000110000000000000001 T
b10000001000110000000000000001 ,#
b10000001000110000000000000001 0#
b1 [
b1 m"
b1 ;#
b1 O#
b101 ]
b101 9#
b101 T#
b1 \
b1 :#
b1 S#
0^
b10 c
b10 h"
b10 l"
b10 8#
b11 x
b11 &#
b11 H#
b1 v
b1 o"
b1 '#
b0 M
b0 *#
b0 J#
b1 w
b1 %#
b1 F#
b0 y
b0 $#
0|
b11000 `
b11000 .#
b10101100000000110000000000000000 j
b10101100000000110000000000000000 b"
b10101100000000110000000000000000 -#
b11100 D
b11100 +#
b11100 <#
b11100 D#
b11000 U
b11000 ="
b11000 B#
b11000 C
b11000 <"
b11000 /#
b11000 =#
b11000 >#
b11000 @#
1!
#26
0!
#27
b0 )"
b0 ""
b0 X
b0 *"
b0 5"
b1010 ~
b1010 ;"
b1010 e"
b1010 K#
0t"
b10 u"
0r"
b1 v"
b1 N
b1 >"
b1 k"
b1 }"
0#
b101 >
b101 !#
b101 Q#
b100010000 Q
b100010 Y
b100010 A"
b100010 |"
b0 V
b0 ,"
b0 d"
b1 O
b1 `"
b1 j"
b1 ?
b1 ."
b1 ]"
b1 x"
b1 M#
b1 '
b1 3
b1 7
0&
0.
0+
b100010000 S
b10 )
b10 1
b10 5
b10 ?"
0l
b0 (
b0 2
b0 6
b0 A#
b0 &"
b0 %"
b0 '"
b10 @
b10 Y"
b10 7#
b100000 B
b100000 ?#
b100000 E#
b100000100001000000000000000100 T
b100000100001000000000000000100 ,#
b100000100001000000000000000100 0#
b100 *
b100 0
b100 4
b100 E
b100 _"
b11 9
b11 f"
b11 I#
b0 #"
b0 W
b0 ("
b0 L#
b10 P"
b0 p
b0 4"
b0 p"
b100000 D
b100000 +#
b100000 <#
b100000 D#
b100000 U
b100000 ="
b100000 B#
b11100 C
b11100 <"
b11100 /#
b11100 =#
b11100 >#
b11100 @#
b11100 `
b11100 .#
b10000001000110000000000000001 j
b10000001000110000000000000001 b"
b10000001000110000000000000001 -#
b11110 q
b11110 +"
b11110 )#
b0 x
b0 &#
b0 H#
b11 u
b11 /"
b11 n"
b11 (#
b11 G#
b0 v
b0 o"
b0 '#
b10 w
b10 %#
b10 F#
b1011 y
b1011 $#
1|
1t
0s
b101 b
b101 E"
b101 i"
b11 c
b11 h"
b11 l"
b11 8#
b1010 d
b1010 1"
b1010 7"
b1010 Q"
b1010 g"
b1010 6#
b10 [
b10 m"
b10 ;#
b10 O#
1!
#28
0!
#29
b101 )"
b0 ~
b0 ;"
b0 e"
b0 K#
b101 ""
b101 X
b101 *"
b101 5"
1z"
b1000 u"
1r"
b10 v"
b1010 U"
b101 V
b101 ,"
b101 d"
1#
b0 >
b0 !#
b0 Q#
b100 N
b100 >"
b100 k"
b100 }"
b1011000001 Q
b100000 Y
b100000 A"
b100000 |"
b1010 @
b1010 Y"
b1010 7#
b1010 S"
b101 &"
b101 %"
b0 '"
b100 O
b100 `"
b100 j"
b100 =
b100 -"
b100 \"
b100 y"
b100 N#
b100 ?
b100 ."
b100 ]"
b100 x"
b100 M#
1.
1-
1&
b10 '
b10 3
b10 7
b1011000001 S
b1000 )
b1000 1
b1000 5
b1000 ?"
b1010 F
b1010 2"
b1010 8"
b1010 P#
b1010 U#
b0 P"
b10000000000000000000000000000000000000000000000000000001010000000000000000000000000000000010000000000000000000000000000101000000000000000000000000000000011 B"
1G
b1010 H
b1010 X"
b1010 4#
b0 o
b0 :"
b0 q"
b0 9
b0 f"
b0 I#
b0 #"
b0 W
b0 ("
b0 L#
b1000 *
b1000 0
b1000 4
b1000 E
b1000 _"
b100100 B
b100100 ?#
b100100 E#
b100000110001100000100000 T
b100000110001100000100000 ,#
b100000110001100000100000 0#
b11 [
b11 m"
b11 ;#
b11 O#
b1010 ]
b1010 9#
b1010 T#
b10 \
b10 :#
b10 S#
b1010 b
b1010 E"
b1010 i"
b0 d
b0 1"
b0 7"
b0 Q"
b0 g"
b0 6#
1g
0f
b100010 q
b100010 +"
b100010 )#
b1 v
b1 o"
b1 '#
b1 M
b1 *#
b1 J#
b101 !"
b101 3"
b101 "#
b1 w
b1 %#
b1 F#
b10 y
b10 $#
0|
0t
b100000 `
b100000 .#
b100000100001000000000000000100 j
b100000100001000000000000000100 b"
b100000100001000000000000000100 -#
b100100 D
b100100 +#
b100100 <#
b100100 D#
b110000 U
b110000 ="
b110000 B#
b100000 C
b100000 <"
b100000 /#
b100000 =#
b100000 >#
b100000 @#
1!
#30
0!
#31
b0 )"
b0 ""
b0 X
b0 *"
b0 5"
b11 A
b11 ^"
b11 w"
b100000 R
b100000 @"
b100000 a"
b0 $
b0 /
b0 8
b0 Z"
b0 u"
0r"
b1 v"
0#
b1010 <
b1010 ~"
b1010 R#
b0 N
b0 >"
b0 k"
b0 }"
b100000001 Q
b100000 Y
b100000 A"
b100000 |"
b100 V
b100 ,"
b100 d"
b0 O
b0 `"
b0 j"
b11 =
b11 -"
b11 \"
b11 y"
b11 N#
b1 '
b1 3
b1 7
0-
0.
b100000001 S
b0 )
b0 1
b0 5
b0 ?"
b11111111111111111111111111111100 &"
b100 %"
b100 '"
b1 @
b1 Y"
b1 7#
b101000 B
b101000 ?#
b101000 E#
b10101100100000110000000000000000 T
b10101100100000110000000000000000 ,#
b10101100100000110000000000000000 0#
b0 *
b0 0
b0 4
b0 E
b0 _"
b100 9
b100 f"
b100 I#
b100 #"
b100 W
b100 ("
b100 L#
b1 P"
b0 F
b0 2"
b0 8"
b0 P#
b0 U#
b101000 D
b101000 +#
b101000 <#
b101000 D#
b100100 U
b100100 ="
b100100 B#
b100100 C
b100100 <"
b100100 /#
b100100 =#
b100100 >#
b100100 @#
b100100 `
b100100 .#
b100000110001100000100000 j
b100000110001100000100000 b"
b100000110001100000100000 -#
b100000 q
b100000 +"
b100000 )#
b100 u
b100 /"
b100 n"
b100 (#
b100 G#
b100 v
b100 o"
b100 '#
b100 M
b100 *#
b100 J#
b0 !"
b0 3"
b0 "#
b10 w
b10 %#
b10 F#
b1000 y
b1000 $#
1|
1s
b0 b
b0 E"
b0 i"
b0 c
b0 h"
b0 l"
b0 8#
b101 d
b101 1"
b101 7"
b101 Q"
b101 g"
b101 6#
0g
b0 ]
b0 9#
b0 T#
b1010 \
b1010 :#
b1010 S#
0_
1!
#32
0!
